{
    "results": [
                {
                "vote_count": 514,
                "id": 354912,
                "video": false,
                "vote_average": 7.5,
                "title": "Coco",
                "popularity": 575.349162,
                "poster_path": "/eKi8dIrr8voobbaGzDpe8w0PVbC.jpg",
                "original_language": "en",
                "original_title": "Coco",
                "genre_ids": [
                              12,
                              16,
                              10751
                              ],
                "backdrop_path": "/askg3SMvhqEl4OL52YuvdtY40Yb.jpg",
                "adult": false,
                "overview": "Despite his family’s baffling generations-old ban on music, Miguel dreams of becoming an accomplished musician like his idol, Ernesto de la Cruz. Desperate to prove his talent, Miguel finds himself in the stunning and colorful Land of the Dead following a mysterious chain of events. Along the way, he meets charming trickster Hector, and together, they set off on an extraordinary journey to unlock the real story behind Miguel's family history.",
                "release_date": "2017-10-27"
                },
                {
                "vote_count": 1790,
                "id": 141052,
                "video": false,
                "vote_average": 6.6,
                "title": "Justice League",
                "popularity": 460.233408,
                "poster_path": "/9rtrRGeRnL0JKtu9IMBWsmlmmZz.jpg",
                "original_language": "en",
                "original_title": "Justice League",
                "genre_ids": [
                              28,
                              12,
                              14,
                              878
                              ],
                "backdrop_path": "/o5T8rZxoWSBMYwjsUFUqTt6uMQB.jpg",
                "adult": false,
                "overview": "Fueled by his restored faith in humanity and inspired by Superman's selfless act, Bruce Wayne and Diana Prince assemble a team of metahumans consisting of Barry Allen, Arthur Curry, and Victor Stone to face the catastrophic threat of Steppenwolf and the Parademons who are on the hunt for three Mother Boxes on Earth.",
                "release_date": "2017-11-15"
                },
                {
                "vote_count": 922,
                "id": 181808,
                "video": false,
                "vote_average": 7.5,
                "title": "Star Wars: The Last Jedi",
                "popularity": 427.936492,
                "poster_path": "/xGWVjewoXnJhvxKW619cMzppJDQ.jpg",
                "original_language": "en",
                "original_title": "Star Wars: The Last Jedi",
                "genre_ids": [
                              28,
                              12,
                              14,
                              878
                              ],
                "backdrop_path": "/5Iw7zQTHVRBOYpA0V6z0yypOPZh.jpg",
                "adult": false,
                "overview": "Rey develops her newly discovered abilities with the guidance of Luke Skywalker, who is unsettled by the strength of her powers. Meanwhile, the Resistance prepares to do battle with the First Order.",
                "release_date": "2017-12-13"
                },
                {
                "vote_count": 408,
                "id": 419680,
                "video": false,
                "vote_average": 5.7,
                "title": "Daddy's Home 2",
                "popularity": 323.052674,
                "poster_path": "/rF2IoKL0IFmumEXQFUuB8LajTYP.jpg",
                "original_language": "en",
                "original_title": "Daddy's Home 2",
                "genre_ids": [
                              18,
                              35
                              ],
                "backdrop_path": "/lMDyuHzBhx3zNAv48vYzmgcJCCD.jpg",
                "adult": false,
                "overview": "Brad and Dusty must deal with their intrusive fathers during the holidays.",
                "release_date": "2017-11-09"
                },
                {
                "vote_count": 863,
                "id": 392044,
                "video": false,
                "vote_average": 6.8,
                "title": "Murder on the Orient Express",
                "popularity": 306.921429,
                "poster_path": "/iBlfxlw8qwtUS0R8YjIU7JtM6LM.jpg",
                "original_language": "en",
                "original_title": "Murder on the Orient Express",
                "genre_ids": [
                              80,
                              18,
                              9648
                              ],
                "backdrop_path": "/tvKcA4OFUiZkNeTJmmTkNqKHMMg.jpg",
                "adult": false,
                "overview": "Genius Belgian detective Hercule Poirot investigates the murder of an American tycoon aboard the Orient Express train.",
                "release_date": "2017-11-03"
                },
                {
                "vote_count": 61,
                "id": 355547,
                "video": false,
                "vote_average": 4.5,
                "title": "The Star",
                "popularity": 283.332857,
                "poster_path": "/tEbDvivUfsCupngKIfMJJ725eAD.jpg",
                "original_language": "en",
                "original_title": "The Star",
                "genre_ids": [
                              35,
                              16,
                              12
                              ],
                "backdrop_path": "/iJ5dkwIHQnq8dfmwSLh7dpETNhi.jpg",
                "adult": false,
                "overview": "A small but brave donkey and his animal friends become the unsung heroes of the greatest story ever told, the first Christmas.",
                "release_date": "2017-11-15"
                },
                {
                "vote_count": 2598,
                "id": 284053,
                "video": false,
                "vote_average": 7.5,
                "title": "Thor: Ragnarok",
                "popularity": 250.983902,
                "poster_path": "/oSLd5GYGsiGgzDPKTwQh7wamO8t.jpg",
                "original_language": "en",
                "original_title": "Thor: Ragnarok",
                "genre_ids": [
                              28,
                              12,
                              35,
                              14,
                              878
                              ],
                "backdrop_path": "/5wNUJs23rT5rTBacNyf5h83AynM.jpg",
                "adult": false,
                "overview": "Thor is imprisoned on the other side of the universe and finds himself in a race against time to get back to Asgard to stop Ragnarok, the prophecy of destruction to his homeworld and the end of Asgardian civilization, at the hands of an all-powerful new threat, the ruthless Hela.",
                "release_date": "2017-10-25"
                },
                {
                "vote_count": 69,
                "id": 371638,
                "video": false,
                "vote_average": 7.4,
                "title": "The Disaster Artist",
                "popularity": 226.952559,
                "poster_path": "/jj84nF5vYRD0HUTowBKcrKk8hZP.jpg",
                "original_language": "en",
                "original_title": "The Disaster Artist",
                "genre_ids": [
                              18,
                              35,
                              36
                              ],
                "backdrop_path": "/bAI7aPHQcvSZXvt7L11kMJdS0Gm.jpg",
                "adult": false,
                "overview": "An aspiring actor in Hollywood meets an enigmatic stranger by the name of Tommy Wiseau, the meeting leads the actor down a path nobody could have predicted; creating the worst movie ever made.",
                "release_date": "2017-12-01"
                },
                {
                "vote_count": 117,
                "id": 353486,
                "video": false,
                "vote_average": 5.7,
                "title": "Jumanji: Welcome to the Jungle",
                "popularity": 189.248206,
                "poster_path": "/bXrZ5iHBEjH7WMidbUDQ0U2xbmr.jpg",
                "original_language": "en",
                "original_title": "Jumanji: Welcome to the Jungle",
                "genre_ids": [
                              28,
                              12,
                              35,
                              10751
                              ],
                "backdrop_path": "/rz3TAyd5kmiJmozp3GUbYeB5Kep.jpg",
                "adult": false,
                "overview": "The tables are turned as four teenagers are sucked into Jumanji's world - pitted against rhinos, black mambas and an endless variety of jungle traps and puzzles. To survive, they'll play as characters from the game.",
                "release_date": "2017-12-08"
                },
                {
                "vote_count": 166,
                "id": 406997,
                "video": false,
                "vote_average": 7.5,
                "title": "Wonder",
                "popularity": 168.61652,
                "poster_path": "/ouYgAatYH4JzIThj6FI3UYf31RI.jpg",
                "original_language": "en",
                "original_title": "Wonder",
                "genre_ids": [
                              18
                              ],
                "backdrop_path": "/f1Jv532UM9j6zrV2XVkHL7HyyIW.jpg",
                "adult": false,
                "overview": "Based on the New York Times bestseller, Wonder tells the inspiring and heartwarming story of August Pullman. Born with facial differences that, up until now, have prevented him from going to a mainstream school, Auggie becomes the most unlikely of heroes when he enters the local fifth grade. As his family, his new classmates, and the larger community all struggle to find their compassion and acceptance, Auggie's extraordinary journey will unite them all and prove you can't blend in when you were born to stand out.",
                "release_date": "2017-11-13"
                },
                {
                "vote_count": 691,
                "id": 440021,
                "video": false,
                "vote_average": 6.3,
                "title": "Happy Death Day",
                "popularity": 166.936458,
                "poster_path": "/cTaEIUYTt52ooq9quVbAQ7NpGwo.jpg",
                "original_language": "en",
                "original_title": "Happy Death Day",
                "genre_ids": [
                              27
                              ],
                "backdrop_path": "/eGx5OfOdvM0gkHdmkLe3hcJuEIT.jpg",
                "adult": false,
                "overview": "A college student relives the day of her murder over and over again as she tries to discover her killer's identity.",
                "release_date": "2017-10-12"
                },
                {
                "vote_count": 83,
                "id": 460793,
                "video": false,
                "vote_average": 6.7,
                "title": "Olaf's Frozen Adventure",
                "popularity": 165.092331,
                "poster_path": "/47pLZ1gr63WaciDfHCpmoiXJlVr.jpg",
                "original_language": "en",
                "original_title": "Olaf's Frozen Adventure",
                "genre_ids": [
                              12,
                              16,
                              35,
                              10751,
                              14,
                              10402
                              ],
                "backdrop_path": "/woCxv9kua5uqtRNaiWUBDzrgZnH.jpg",
                "adult": false,
                "overview": "Olaf is on a mission to harness the best holiday traditions for Anna, Elsa, and Kristoff.",
                "release_date": "2017-10-27"
                },
                {
                "vote_count": 55,
                "id": 413362,
                "video": false,
                "vote_average": 5.8,
                "title": "Roman J. Israel, Esq.",
                "popularity": 127.790408,
                "poster_path": "/8e5IGlLrVjwrlDcRtzSQkXhJFWl.jpg",
                "original_language": "en",
                "original_title": "Roman J. Israel, Esq.",
                "genre_ids": [
                              18
                              ],
                "backdrop_path": "/sY2ttr9jdPFlTVm5gxFkRW2ELUi.jpg",
                "adult": false,
                "overview": "Hard-nosed liberal lawyer Roman J. Israel has been fighting the good fight forever while others take the credit. When his partner, the firm’s frontman, has a heart attack, Israel suddenly takes on that role. He soon discovers some unsettling truths about the firm--truths that conflict with his values of helping the poor and dispossessed--and finds himself in an existential crisis that leads to extreme actions.",
                "release_date": "2017-11-10"
                },
                {
                "vote_count": 53,
                "id": 399055,
                "video": false,
                "vote_average": 6.1,
                "title": "The Shape of Water",
                "popularity": 127.468301,
                "poster_path": "/iLYLADGA5oKGM92Ns1j9CDgk3iI.jpg",
                "original_language": "en",
                "original_title": "The Shape of Water",
                "genre_ids": [
                              18,
                              14,
                              10749
                              ],
                "backdrop_path": "/6rhXCI4I6FRTWMka7hz39dQCiL7.jpg",
                "adult": false,
                "overview": "An other-worldly story, set against the backdrop of Cold War era America circa 1962, where a mute janitor working at a lab falls in love with an amphibious man being held captive there and devises a plan to help him escape.",
                "release_date": "2017-12-01"
                },
                {
                "vote_count": 42,
                "id": 450322,
                "video": false,
                "vote_average": 4.2,
                "title": "The Man Who Invented Christmas",
                "popularity": 120.864649,
                "poster_path": "/qRkzRue5rTzB6PESXBJCKqROOXC.jpg",
                "original_language": "en",
                "original_title": "The Man Who Invented Christmas",
                "genre_ids": [
                              18,
                              36
                              ],
                "backdrop_path": "/2lpHdk1ccelg5odsCmk77WqmIvT.jpg",
                "adult": false,
                "overview": "After a series his books have been flops, Charles Dickens decides to write and self-publish A Christmas Carol.",
                "release_date": "2017-11-22"
                },
                {
                "vote_count": 35,
                "id": 399404,
                "video": false,
                "vote_average": 3.6,
                "title": "Darkest Hour",
                "popularity": 110.67121,
                "poster_path": "/67fPL6ZaiOeM4hYqpxqV9Py8psJ.jpg",
                "original_language": "en",
                "original_title": "Darkest Hour",
                "genre_ids": [
                              18,
                              36,
                              10752
                              ],
                "backdrop_path": "/mBd56RoS8HiiLT1u0ZZAWFWSU3g.jpg",
                "adult": false,
                "overview": "A thrilling and inspiring true story begins on the eve of World War II as, within days of becoming Prime Minister of Great Britain, Winston Churchill must face one of his most turbulent and defining trials: exploring a negotiated peace treaty with Nazi Germany, or standing firm to fight for the ideals, liberty and freedom of a nation. As the unstoppable Nazi forces roll across Western Europe and the threat of invasion is imminent, and with an unprepared public, a skeptical King, and his own party plotting against him, Churchill must withstand his darkest hour, rally a nation, and attempt to change the course of world history.",
                "release_date": "2017-11-22"
                },
                {
                "vote_count": 27,
                "id": 317091,
                "video": false,
                "vote_average": 4.3,
                "title": "November Criminals",
                "popularity": 107.923409,
                "poster_path": "/m2JxGgarPvtemudLZ1CB6gLJeUb.jpg",
                "original_language": "en",
                "original_title": "November Criminals",
                "genre_ids": [
                              18,
                              80
                              ],
                "backdrop_path": "/lyX1uZMeMNql7HG2FzNeLAItK17.jpg",
                "adult": false,
                "overview": "Addison Schacht investigates the murder of his friend Kevin, with the help of Pheobe, and they discover the truth is darker than they ever imagined.",
                "release_date": "2017-12-08"
                },
                {
                "vote_count": 6,
                "id": 324562,
                "video": false,
                "vote_average": 6.2,
                "title": "The Tribes of Palos Verdes",
                "popularity": 106.968552,
                "poster_path": "/8w4JecmVtqcSMk4mdiHURzISsYz.jpg",
                "original_language": "en",
                "original_title": "The Tribes of Palos Verdes",
                "genre_ids": [
                              18
                              ],
                "backdrop_path": "/oaP6t1q2eqISHpx5tvwK7GFXtQ9.jpg",
                "adult": false,
                "overview": "When the situation at her idyllic Palos Verdes home turns volatile, young Medina attempts to surf her way to happiness.",
                "release_date": "2017-12-01"
                },
                {
                "vote_count": 16,
                "id": 480572,
                "video": false,
                "vote_average": 5,
                "title": "Bullet Head",
                "popularity": 104.036075,
                "poster_path": "/ySmKQPjWnNzuZ5YliQaOVEnWn2.jpg",
                "original_language": "en",
                "original_title": "Bullet Head",
                "genre_ids": [
                              18,
                              80,
                              53
                              ],
                "backdrop_path": "/eL0QAAtFfA0OvnBsY7tJKrFbc9B.jpg",
                "adult": false,
                "overview": "A group of career criminals finds itself trapped in a warehouse with the law – and an Attack Dog named DeNiro closing in.",
                "release_date": "2017-12-07"
                },
                {
                "vote_count": 35,
                "id": 429189,
                "video": false,
                "vote_average": 4.8,
                "title": "Wonder Wheel",
                "popularity": 97.701073,
                "poster_path": "/fPXn8SW4pa4kJErAIAJLmb3Znns.jpg",
                "original_language": "en",
                "original_title": "Wonder Wheel",
                "genre_ids": [
                              18
                              ],
                "backdrop_path": "/jGYeZzcAG0df2nWRLJW2CiweyyG.jpg",
                "adult": false,
                "overview": "The story of four characters whose lives intertwine amid the hustle and bustle of the Coney Island amusement park in the 1950s: Ginny, an emotionally volatile former actress now working as a waitress in a clam house; Humpty, Ginny’s rough-hewn carousel operator husband; Mickey, a handsome young lifeguard who dreams of becoming a playwright; and Carolina, Humpty’s long-estranged daughter, who is now hiding out from gangsters at her father’s apartment.",
                "release_date": "2017-12-01"
                }
                ],
    "page": 1,
    "total_results": 1087,
    "dates": {
        "maximum": "2017-12-17",
        "minimum": "2017-10-29"
    },
    "total_pages": 55
}
